Digital Design/digital designnnn/Lab6_a/simulation/qsim/lab6_a.msim.vcd
$comment
	File created using the following command:
		vcd file lab6_a.msim.vcd -direction
$end
$date
	Mon Nov 09 11:27:49 2015
$end
$version
	ModelSim Version 10.3d
$end
$timescale
	1ps
$end

$scope module lab6_a_vlg_vec_tst $end
$var reg 1 ! x1 $end
$var reg 1 " x2 $end
$var reg 1 # x3 $end
$var wire 1 $ f $end
$var wire 1 % sampler $end

$scope module i1 $end
$var wire 1 & gnd $end
$var wire 1 ' vcc $end
$var wire 1 ( unknown $end
$var tri1 1 ) devclrn $end
$var tri1 1 * devpor $end
$var tri1 1 + devoe $end
$var wire 1 , ~QUARTUS_CREATED_GND~I_combout $end
$var wire 1 - x1~input_o $end
$var wire 1 . x2~input_o $end
$var wire 1 / x3~input_o $end
$var wire 1 0 f~0_combout $end
$upscope $end
$upscope $end
$enddefinitions $end
#0
$dumpvars
0!
0"
0#
1$
x%
0&
1'
x(
1)
1*
1+
0,
0-
0.
0/
10
$end
#100000
1#
1/
0%
#200000
1"
0#
1.
0/
1%
#300000
1#
1/
0%
00
0$
#400000
1!
0"
0#
1-
0.
0/
1%
10
1$
#500000
1#
1/
0%
#600000
1"
0#
1.
0/
1%
#700000
1#
1/
0%
#800000
0!
0"
0#
0-
0.
0/
1%
