Digital Design/digital designnnn/Lab6_c/simulation/qsim/lab6_c.msim.vcd
$comment
	File created using the following command:
		vcd file lab6_c.msim.vcd -direction
$end
$date
	Sun Nov 08 16:37:10 2015
$end
$version
	ModelSim Version 10.3d
$end
$timescale
	1ps
$end

$scope module lab6_c_vlg_vec_tst $end
$var reg 1 ! En $end
$var reg 2 " w [1:0] $end
$var wire 1 # y [0] $end
$var wire 1 $ y [1] $end
$var wire 1 % y [2] $end
$var wire 1 & y [3] $end
$var wire 1 ' sampler $end

$scope module i1 $end
$var wire 1 ( gnd $end
$var wire 1 ) vcc $end
$var wire 1 * unknown $end
$var tri1 1 + devclrn $end
$var tri1 1 , devpor $end
$var tri1 1 - devoe $end
$var wire 1 . ~QUARTUS_CREATED_GND~I_combout $end
$var wire 1 / En~input_o $end
$var wire 1 0 w[1]~input_o $end
$var wire 1 1 w[0]~input_o $end
$var wire 1 2 Mux3~0_combout $end
$var wire 1 3 Mux2~0_combout $end
$var wire 1 4 Mux1~0_combout $end
$var wire 1 5 Mux0~0_combout $end
$upscope $end
$upscope $end
$enddefinitions $end
#0
$dumpvars
0!
b0 "
0&
0%
0$
0#
x'
0(
1)
x*
1+
1,
1-
0.
0/
00
01
02
03
04
05
$end
#100000
b1 "
11
0'
#200000
b11 "
b10 "
01
10
1'
#300000
b11 "
11
0'
#400000
1!
b1 "
b0 "
1/
01
00
1'
15
1#
#500000
b1 "
11
0'
05
14
1$
0#
#600000
b11 "
b10 "
01
10
1'
04
13
1%
0$
#700000
b11 "
11
0'
03
12
1&
0%
#800000
0!
b1 "
b0 "
0/
01
00
1'
02
0&
