Digital Design/digital designnnn/Lab6_d/simulation/qsim/lab6_d.msim.vcd
$comment
	File created using the following command:
		vcd file lab6_d.msim.vcd -direction
$end
$date
	Sun Nov 08 17:31:59 2015
$end
$version
	ModelSim Version 10.3d
$end
$timescale
	1ps
$end

$scope module lab6_d_vlg_vec_tst $end
$var reg 2 ! s [1:0] $end
$var reg 1 " w0 $end
$var reg 1 # w1 $end
$var reg 1 $ w2 $end
$var reg 1 % w3 $end
$var wire 1 & f $end
$var wire 1 ' sampler $end

$scope module i1 $end
$var wire 1 ( gnd $end
$var wire 1 ) vcc $end
$var wire 1 * unknown $end
$var tri1 1 + devclrn $end
$var tri1 1 , devpor $end
$var tri1 1 - devoe $end
$var wire 1 . ~QUARTUS_CREATED_GND~I_combout $end
$var wire 1 / w2~input_o $end
$var wire 1 0 s[0]~input_o $end
$var wire 1 1 w0~input_o $end
$var wire 1 2 s[1]~input_o $end
$var wire 1 3 w3~input_o $end
$var wire 1 4 w1~input_o $end
$var wire 1 5 Mux0~0_combout $end
$upscope $end
$upscope $end
$enddefinitions $end
#0
$dumpvars
b0 !
1"
x#
z$
0%
1&
x'
0(
1)
x*
1+
1,
1-
0.
z/
00
11
02
03
x4
15
$end
#100000
b1 !
10
0'
x5
x&
#200000
b11 !
b10 !
00
12
1'
#300000
b11 !
10
0'
05
0&
#400000
b1 !
b0 !
00
02
1'
15
1&
#500000
b1 !
10
0'
x5
x&
#600000
b11 !
b10 !
00
12
1'
#700000
b11 !
10
0'
05
0&
#800000
0"
0#
0$
b1 !
b0 !
01
04
0/
00
02
1'
